2020-07-12 21:03:30,998 INFO: PulsestartWebApplication startup [in /Users/Kyle/Documents/BESTDev/Pulsestart/PulsestartWebApplication/pwaApp/app/__init__.py:43]
2020-07-12 21:04:20,172 INFO: PulsestartWebApplication startup [in /Users/Kyle/Documents/BESTDev/Pulsestart/PulsestartWebApplication/pwaApp/app/__init__.py:43]
2020-07-12 22:07:50,914 INFO: PulsestartWebApplication startup [in /Users/Kyle/Documents/BESTDev/Pulsestart/PulsestartWebApplication/pwaApp/app/__init__.py:43]
2020-07-12 22:10:31,135 INFO: PulsestartWebApplication startup [in /Users/Kyle/Documents/BESTDev/Pulsestart/PulsestartWebApplication/pwaApp/app/__init__.py:43]
2020-07-12 22:11:05,782 INFO: PulsestartWebApplication startup [in /Users/Kyle/Documents/BESTDev/Pulsestart/PulsestartWebApplication/pwaApp/app/__init__.py:43]
2020-07-19 11:52:32,495 INFO: PulsestartWebApplication startup [in /root/pulsestart-web-application/app/__init__.py:52]
2020-07-19 11:52:32,866 INFO: PulsestartWebApplication startup [in /root/pulsestart-web-application/app/__init__.py:52]
2020-07-19 11:52:33,046 INFO: PulsestartWebApplication startup [in /root/pulsestart-web-application/app/__init__.py:52]
2020-07-19 11:52:33,143 INFO: PulsestartWebApplication startup [in /root/pulsestart-web-application/app/__init__.py:52]
2020-07-19 11:57:51,140 INFO: PulsestartWebApplication startup [in /root/pulsestart-web-application/app/__init__.py:52]
2020-07-19 11:57:51,150 INFO: PulsestartWebApplication startup [in /root/pulsestart-web-application/app/__init__.py:52]
2020-07-19 11:57:51,184 INFO: PulsestartWebApplication startup [in /root/pulsestart-web-application/app/__init__.py:52]
2020-07-19 11:57:51,247 INFO: PulsestartWebApplication startup [in /root/pulsestart-web-application/app/__init__.py:52]
2020-07-19 13:10:16,079 ERROR: Exception on /index [GET] [in /root/pulsestart-web-application/venv/lib/python3.6/site-packages/flask/app.py:1892]
Traceback (most recent call last):
  File "/root/pulsestart-web-application/venv/lib/python3.6/site-packages/sqlalchemy/engine/base.py", line 1278, in _execute_context
    cursor, statement, parameters, context
  File "/root/pulsestart-web-application/venv/lib/python3.6/site-packages/sqlalchemy/engine/default.py", line 593, in do_execute
    cursor.execute(statement, parameters)
sqlite3.OperationalError: no such table: user

The above exception was the direct cause of the following exception:

Traceback (most recent call last):
  File "/root/pulsestart-web-application/venv/lib/python3.6/site-packages/flask/app.py", line 2447, in wsgi_app
    response = self.full_dispatch_request()
  File "/root/pulsestart-web-application/venv/lib/python3.6/site-packages/flask/app.py", line 1952, in full_dispatch_request
    rv = self.handle_user_exception(e)
  File "/root/pulsestart-web-application/venv/lib/python3.6/site-packages/flask/app.py", line 1821, in handle_user_exception
    reraise(exc_type, exc_value, tb)
  File "/root/pulsestart-web-application/venv/lib/python3.6/site-packages/flask/_compat.py", line 39, in reraise
    raise value
  File "/root/pulsestart-web-application/venv/lib/python3.6/site-packages/flask/app.py", line 1948, in full_dispatch_request
    rv = self.preprocess_request()
  File "/root/pulsestart-web-application/venv/lib/python3.6/site-packages/flask/app.py", line 2242, in preprocess_request
    rv = func()
  File "/root/pulsestart-web-application/app/routes.py", line 14, in before_request
    if current_user.is_authenticated:
  File "/root/pulsestart-web-application/venv/lib/python3.6/site-packages/werkzeug/local.py", line 347, in __getattr__
    return getattr(self._get_current_object(), name)
  File "/root/pulsestart-web-application/venv/lib/python3.6/site-packages/werkzeug/local.py", line 306, in _get_current_object
    return self.__local()
  File "/root/pulsestart-web-application/venv/lib/python3.6/site-packages/flask_login/utils.py", line 26, in <lambda>
    current_user = LocalProxy(lambda: _get_user())
  File "/root/pulsestart-web-application/venv/lib/python3.6/site-packages/flask_login/utils.py", line 346, in _get_user
    current_app.login_manager._load_user()
  File "/root/pulsestart-web-application/venv/lib/python3.6/site-packages/flask_login/login_manager.py", line 318, in _load_user
    user = self._user_callback(user_id)
  File "/root/pulsestart-web-application/app/models.py", line 12, in load_user
    return User.query.get(int(id))
  File "/root/pulsestart-web-application/venv/lib/python3.6/site-packages/sqlalchemy/orm/query.py", line 1021, in get
    return self._get_impl(ident, loading.load_on_pk_identity)
  File "/root/pulsestart-web-application/venv/lib/python3.6/site-packages/sqlalchemy/orm/query.py", line 1138, in _get_impl
    return db_load_fn(self, primary_key_identity)
  File "/root/pulsestart-web-application/venv/lib/python3.6/site-packages/sqlalchemy/orm/loading.py", line 287, in load_on_pk_identity
    return q.one()
  File "/root/pulsestart-web-application/venv/lib/python3.6/site-packages/sqlalchemy/orm/query.py", line 3458, in one
    ret = self.one_or_none()
  File "/root/pulsestart-web-application/venv/lib/python3.6/site-packages/sqlalchemy/orm/query.py", line 3427, in one_or_none
    ret = list(self)
  File "/root/pulsestart-web-application/venv/lib/python3.6/site-packages/sqlalchemy/orm/query.py", line 3503, in __iter__
    return self._execute_and_instances(context)
  File "/root/pulsestart-web-application/venv/lib/python3.6/site-packages/sqlalchemy/orm/query.py", line 3528, in _execute_and_instances
    result = conn.execute(querycontext.statement, self._params)
  File "/root/pulsestart-web-application/venv/lib/python3.6/site-packages/sqlalchemy/engine/base.py", line 1014, in execute
    return meth(self, multiparams, params)
  File "/root/pulsestart-web-application/venv/lib/python3.6/site-packages/sqlalchemy/sql/elements.py", line 298, in _execute_on_connection
    return connection._execute_clauseelement(self, multiparams, params)
  File "/root/pulsestart-web-application/venv/lib/python3.6/site-packages/sqlalchemy/engine/base.py", line 1133, in _execute_clauseelement
    distilled_params,
  File "/root/pulsestart-web-application/venv/lib/python3.6/site-packages/sqlalchemy/engine/base.py", line 1318, in _execute_context
    e, statement, parameters, cursor, context
  File "/root/pulsestart-web-application/venv/lib/python3.6/site-packages/sqlalchemy/engine/base.py", line 1512, in _handle_dbapi_exception
    sqlalchemy_exception, with_traceback=exc_info[2], from_=e
  File "/root/pulsestart-web-application/venv/lib/python3.6/site-packages/sqlalchemy/util/compat.py", line 178, in raise_
    raise exception
  File "/root/pulsestart-web-application/venv/lib/python3.6/site-packages/sqlalchemy/engine/base.py", line 1278, in _execute_context
    cursor, statement, parameters, context
  File "/root/pulsestart-web-application/venv/lib/python3.6/site-packages/sqlalchemy/engine/default.py", line 593, in do_execute
    cursor.execute(statement, parameters)
sqlalchemy.exc.OperationalError: (sqlite3.OperationalError) no such table: user
[SQL: SELECT user.id AS user_id, user.username AS user_username, user.email AS user_email, user.password_hash AS user_password_hash, user.about_me AS user_about_me, user.last_seen AS user_last_seen 
FROM user 
WHERE user.id = ?]
[parameters: (1,)]
(Background on this error at: http://sqlalche.me/e/13/e3q8)
